
task1
lesson2

import com.sun.scenario.effect.impl.sw.sse.SSEBlend_SRC_OUTPeer;

public class lesson22 {
    public static void main(String [] args){
        Person person1 = new Person();     // создаем ссылочную переменную
        person1.name ="Роман";
        person1.age = 30;
        System.out.println("Меня зовут "+person1.name +","+"мне "+person1.age+" лет");
        Person person2 = new Person();
        person2.name = "Стэн";
        person2.age = 20;
        System.out.print("Меня зовут "+person2.name +","+"мне "+person2.age+" лет");
    }
}

class Person{
    String name;
    int age;
}

task2
lesson2


import org.omg.CORBA.PUBLIC_MEMBER;
import org.omg.CosNaming.IstringHelper;
import sun.awt.OSInfo;

public class lesson21 {
    public static void main(String [] args){
        int x = 5;                      // Примитывный тип данных
        String s = "I";                 // s ссылается на объект класса String
        String s1 = " love";
        String s2 = " Java";
        System.out.println(s+s1+s2);


    }
}


task3 
lesson2

import java.io.File;
import java.io.FileNotFoundException;
import java.util.Scanner;
//обработка искючении

public class lesson2 {
    public static void main(String [] args){
        File file = new File(      "123");

        try {
            Scanner scanner = new Scanner(file);      // вызов исключении
        } catch (FileNotFoundException e) {          //обработка исключении
            System.out.println("Файл не найден");
        }

    }

}
